COVID Vaccinations and Voting Trends in the 2020 Presidential Election in Texas
…
To join all of the data into one dataset, countydata, I first used Inner Join on population data and election data, with the name of the county as the key. Using a similar method, I joined vaccinedata and then casedata. 4 observations were dropped from vaccinedata and 2 observations were dropped from casedata. Some issues that may arise is that any data that does not fit within the counties but still happened within the state of Texas, for example federal facilities, will not be included in the rest of the Data.

c. Wrangling the Data

I will now wrangle the data further.

# Create a new variable Vaccination Rate which calculates the number of fully vaccinated people per person in each county
countydata <- countydata %>%
  mutate(`Vaccination Rate` = `People Fully Vaccinated`/`Population`)
countydata %>% head()

## # A tibble: 6 x 22
##   county  Population `Donald TrumpRepubl… `Donald TrumpRepub… `Joe BidenDemocra…
##   <chr>        <dbl>                <dbl>               <dbl>              <dbl>
## 1 Anders…      57922                 78.6               15110              20.6 
## 2 Andrews      18610                 84.3                4943              14.5 
## 3 Angeli…      86395                 72.4               25076              26.4 
## 4 Aransas      23830                 75.2                9239              23.7 
## 5 Archer        8560                 89.7                4300               9.3 
## 6 Armstr…       1848                 93.1                1035               6.74
## # … with 17 more variables: Joe BidenDemocratic # <dbl>,
## #   Jo JorgensenLibertarian % <dbl>, Jo JorgensenLibertarian # <dbl>,
## #   Howie HawkinsGreen % <dbl>, Howie HawkinsGreen # <dbl>,
## #   Other votes % <dbl>, Other votes # <dbl>, Totalvotes <dbl>,
## #   Total Doses Allocated <dbl>, Vaccine Doses Administered <dbl>,
## #   People Vaccinated with at least One Dose <dbl>,
## #   People Fully Vaccinated <dbl>, People Vaccinated with Booster Dose <dbl>,
## #   Confirmed Cases <dbl>, Probable Cases <dbl>, Fatalities <dbl>,
## #   Vaccination Rate <dbl>

# Remove redundant variables by selecting for the main variables
countydata <- countydata %>%
  select(county, Population, `Donald TrumpRepublican %`, `Total Doses Allocated`, `Vaccine Doses Administered`, `Confirmed Cases`, `Vaccination Rate`)

I have added a new variable that gives the vaccination rate per county and removed certain redundant variables.

2. Exploratory Data Analysis

I will now create correlation matrix to determine the correlation coefficients for my variables.

# Build a correlation matrix between all numeric variables
countydata_num <- countydata %>%
  select_if(is.numeric)
cor(countydata_num, use = "pairwise.complete.obs")

##                            Population Donald TrumpRepublican %
## Population                  1.0000000               -0.4577916
## Donald TrumpRepublican %   -0.4577916                1.0000000
## Total Doses Allocated       0.9691487               -0.4854598
## Vaccine Doses Administered  0.9961647               -0.4769330
##                            Total Doses Allocated Vaccine Doses Administered
## Population                             0.9691487                  0.9961647
## Donald TrumpRepublican %              -0.4854598                 -0.4769330
## Total Doses Allocated                  1.0000000                  0.9739978
## Vaccine Doses Administered             0.9739978                  1.0000000
##                            Confirmed Cases Vaccination Rate
## Population                       0.9936993        0.2492709
## Donald TrumpRepublican %        -0.4479577       -0.7367959
## Total Doses Allocated            0.9544324        0.2683283
## Vaccine Doses Administered       0.9896664        0.2808852
##  [ reached getOption("max.print") -- omitted 2 rows ]
…
